{
    "routes":[
        {
            "id": 1,
            "name": "Get Hasil Canvasing",
            "route": "prapen.verin.get-hasil-canvasing"
        },
        {
            "id": 2,
            "name": "Get Data Tambahan Nasabah",
            "route": "prapen.verin.dataTambahanNasabah"
        },
        {
            "id": 3,
            "name": "Get Data Dedupe",
            "route": "prapen.verin.getDedupe"
        },
        {
            "id": 4,
            "name": "Get Data Akad",
            "route": "prapen.verin.getAkad"
        },
        {
            "id": 5,
            "name": "Get Data Pendapatan",
            "route": "prapen.verin.post-pendapatan-akseptasi"
        }
    ],
    "permission_menu" : 
        {
            "status": "strddfvdfving",
            "statusMsg": "asasas",
            "data":[
                {
                    "id" : "1",
                    "menu_name" : "Verifikasi Income",
                    "fitur" : [
                        {
                            "route_name" : "prapen.verin.index",
                            "roles" : [
                                "153","154"
                            ]
                        },
                        {
                            "route_name" : "prapen.verin.get-hasil-canvasing",
                            "roles" : [
                                "153","154"
                            ]
                        },
                        {
                            "route_name" : "prapen.verin.get-hasil-canvasing",
                            "roles" : [
                                "153","154"
                            ]
                        },
                        {
                            "route_name" : "prapen.verin.get-hasil-canvasing",
                            "roles" : [
                                "153","154"
                            ]
                        }
                    ]
                },{
                    "id" : "2",
                    "menu_name" : "Testing",
                    "fitur" : [
                        {
                            "route_name" : "prapen.testing.index",
                            "roles" : [
                                "153","154"
                            ]
                        }
                    ]
                }
            ]
        }
    
}